Hayman Fire Recovery
…
#convert long data to wide
wide_pivot<-pivot_wider(full_long,names_from = "site", values_from = "value")%>%
  mutate(month=month(DateTime),
         year = year(DateTime),
         treatment = cut(year,breaks=c(0,2003,2020),
                         labels=c('pre-burn','post-burn')))
#convert wide data to long
full_wide%>% 
  pivot_longer(burned_ndmi:unburned_ndsi,
              names_to="data", 
              values_to='value',
              values_drop_na = TRUE)

## # A tibble: 9,540 x 5
##    DateTime   month  year data           value
##    <date>     <dbl> <dbl> <chr>          <dbl>
##  1 1984-04-10     4  1984 burned_ndmi   0.522 
##  2 1984-04-10     4  1984 unburned_ndmi 0.669 
##  3 1984-04-10     4  1984 burned_ndvi   0.200 
##  4 1984-04-10     4  1984 unburned_ndvi 0.0964
##  5 1984-04-10     4  1984 burned_ndsi   0.361 
##  6 1984-04-10     4  1984 unburned_ndsi 0.605 
##  7 1984-06-06     6  1984 burned_ndmi   0.0285
##  8 1984-06-06     6  1984 unburned_ndmi 0.001 
##  9 1984-06-06     6  1984 burned_ndvi   0.385 
## 10 1984-06-06     6  1984 unburned_ndvi 0.392 
## # ... with 9,530 more rows
…
